…
Suppose we wanted to take the first 3 columns only. There are a few ways to do this. We could for example use numerical indices. But we can also use the names directly.

        names(pizza)[1:3]
        [1] "day"  "date" "time"

        select(pizza,day:time)
        # A tibble: 1,266 x 3
        day      date       time
        <chr>    <chr>     <dbl>
        1 Thursday 01-May-14  35.1
        2 Thursday 01-May-14  25.2
        3 Thursday 01-May-14  45.6
        4 Thursday 01-May-14  29.4
        5 Thursday 01-May-14  30.0
        6 Thursday 01-May-14  40.3
        7 Thursday 01-May-14  48.7
        8 Thursday 01-May-14  34.0
        9 Thursday 01-May-14  28.2
        10 Thursday 01-May-14  38.0
        # ... with 1,256 more rows
…
